商品Id(对应item.txt中的第一列道具id),cash价格（如果是购买cash就是法币价格）,金币价格（一律填1个的价格，有程序来计算总价）,数量 （不填写的话，默认数量为1; cash和金币两种价格对应的数量一致）,是否上架  1 - 上架   0 - 下架,描述,图标Id
0,6,,60,1,60cash,0_0
0,30,,300,1,300cash,0_1
0,68,,680,1,680cash,0_2
0,128,,1280,1,1280cash,0_3
0,328,,3280,1,3280cash,0_4
0,648,,6480,1,6480cash,0_5
8,188,20000000_0.1,1,1,寒星大陆技能点,2_0
9,188,20000000_0.1,1,1,流浪者荒漠技能点,2_1
10,188,20000000_0.1,1,1,永夜森林技能点,2_2
8,1880,18000000_0.1,10,1,10X 寒星大陆技能点,2_0
9,1880,18000000_0.1,10,1,10X 流浪者荒漠技能点,2_1
10,1880,18000000_0.1,10,1,10X 永夜森林技能点,2_2
11,28,,1,1,2X收益,3_0
12,140,,1,1,2X收益,3_1
13,900,,1,1,2X收益,3_2
14,40,,1,1,4X收益,3_3
15,260,,1,1,4X收益,3_4
16,1600,,1,1,4X收益,3_5
17,120,,1,1,10X收益,3_6
18,720,,1,1,10X收益,3_7
19,1800,,1,1,50X收益,3_8
23,30,,1,1,2X速度,5_0
24,150,,1,1,2X速度,5_1
